<?xml version="1.0" encoding="UTF-8"?>
<!DOCTYPE svg PUBLIC "-//W3C//DTD SVG 1.1//EN"
    "http://www.w3.org/Graphics/SVG/1.1/DTD/svg11.dtd" >
<svg contentScriptType="text/ecmascript" width="1332.0"
     xmlns:xlink="http://www.w3.org/1999/xlink" zoomAndPan="magnify"
     contentStyleType="text/css"
     viewBox="-603.000000 -438.417908 1332.000000 609.445190" height="609.4452"
     preserveAspectRatio="xMidYMid meet" xmlns="http://www.w3.org/2000/svg"
     version="1.1">
    <g id="edges">
        <path fill="none" stroke-width="1.0"
              d="M 242.919601,-118.409866 C 334.582184,-209.389328 608.545227,-208.364639 699.524719,-116.702057"
              class="id_2 id_1" stroke-opacity="1.0" stroke="#86c0a6"/>
        <path fill="none" stroke-width="1.0"
              d="M 91.137314,121.545891 C 165.165192,-47.781174 530.197632,-190.729950 699.524719,-116.702057"
              class="id_3 id_1" stroke-opacity="1.0" stroke="#86c0a6"/>
        <path fill="none" stroke-width="1.0"
              d="M 91.137314,121.545891 C 73.502625,43.198284 164.571991,-100.775177 242.919601,-118.409866"
              class="id_3 id_2" stroke-opacity="1.0" stroke="#edf8fb"/>
        <path fill="none" stroke-width="1.0"
              d="M 371.921204,88.169044 C 396.467682,-18.325882 593.029785,-141.248535 699.524719,-116.702057"
              class="id_4 id_1" stroke-opacity="1.0" stroke="#86c0a6"/>
        <path fill="none" stroke-width="1.0"
              d="M 371.921204,88.169044 C 304.805084,72.653580 227.404129,-51.293762 242.919601,-118.409866"
              class="id_4 id_2" stroke-opacity="1.0" stroke="#edf8fb"/>
        <path fill="none" stroke-width="1.0"
              d="M 371.921204,88.169044 C 322.439819,151.001190 153.969452,171.027298 91.137314,121.545891"
              class="id_4 id_3" stroke-opacity="1.0" stroke="#edf8fb"/>
        <path fill="none" stroke-width="1.0"
              d="M 504.019012,41.151428 C 511.549469,-29.520407 628.852905,-124.232498 699.524719,-116.702057"
              class="id_5 id_1" stroke-opacity="1.0" stroke="#86c0a6"/>
        <path fill="none" stroke-width="1.0"
              d="M 684.891663,-11.416432 C 666.761169,-35.400169 675.540955,-98.571548 699.524719,-116.702057"
              class="id_6 id_1" stroke-opacity="1.0" stroke="#86c0a6"/>
        <path fill="none" stroke-width="1.0"
              d="M 607.673767,72.953316 C 588.112854,16.652048 643.223450,-97.141174 699.524719,-116.702057"
              class="id_7 id_1" stroke-opacity="1.0" stroke="#86c0a6"/>
        <path fill="none" stroke-width="1.0"
              d="M 607.673767,72.953316 C 580.582458,87.323898 518.389587,68.242760 504.019012,41.151428"
              class="id_7 id_5" stroke-opacity="1.0" stroke="#edf8fb"/>
        <path fill="none" stroke-width="1.0"
              d="M 607.673767,72.953316 C 606.243408,40.635784 652.574097,-9.986061 684.891663,-11.416432"
              class="id_7 id_6" stroke-opacity="1.0" stroke="#edf8fb"/>
        <path fill="none" stroke-width="1.0"
              d="M 370.457001,-98.355583 C 432.601257,-167.838425 630.041870,-178.846313 699.524719,-116.702057"
              class="id_8 id_1" stroke-opacity="1.0" stroke="#86c0a6"/>
        <path fill="none" stroke-width="1.0"
              d="M 370.457001,-98.355583 C 340.938660,-76.858963 264.416229,-88.891533 242.919601,-118.409866"
              class="id_8 id_2" stroke-opacity="1.0" stroke="#edf8fb"/>
        <path fill="none" stroke-width="1.0"
              d="M 370.457001,-98.355583 C 358.573334,1.488651 190.981537,133.429535 91.137314,121.545891"
              class="id_8 id_3" stroke-opacity="1.0" stroke="#edf8fb"/>
        <path fill="none" stroke-width="1.0"
              d="M 370.457001,-98.355583 C 408.054779,-61.343494 408.933289,50.571278 371.921204,88.169044"
              class="id_8 id_4" stroke-opacity="1.0" stroke="#edf8fb"/>
        <path fill="none" stroke-width="1.0"
              d="M -30.748755,27.978563 C 86.369820,-147.012268 524.533936,-233.820633 699.524719,-116.702057"
              class="id_9 id_1" stroke-opacity="1.0" stroke="#86c0a6"/>
        <path fill="none" stroke-width="1.0"
              d="M -30.748755,27.978563 C 12.341927,22.314817 85.473572,78.455215 91.137314,121.545891"
              class="id_9 id_3" stroke-opacity="1.0" stroke="#edf8fb"/>
        <path fill="none" stroke-width="1.0"
              d="M 175.330444,45.042385 C 173.792526,77.181717 123.276642,123.083817 91.137314,121.545891"
              class="id_10 id_3" stroke-opacity="1.0" stroke="#edf8fb"/>
        <path fill="none" stroke-width="1.0"
              d="M 586.192200,19.818859 C 581.554504,-30.151833 649.554016,-112.064377 699.524719,-116.702057"
              class="id_11 id_1" stroke-opacity="1.0" stroke="#86c0a6"/>
        <path fill="none" stroke-width="1.0"
              d="M 586.192200,19.818859 C 574.024109,40.520012 524.720215,53.319553 504.019012,41.151428"
              class="id_11 id_5" stroke-opacity="1.0" stroke="#edf8fb"/>
        <path fill="none" stroke-width="1.0"
              d="M 586.192200,19.818859 C 599.684998,-6.168093 658.904724,-24.909267 684.891663,-11.416432"
              class="id_11 id_6" stroke-opacity="1.0" stroke="#edf8fb"/>
        <path fill="none" stroke-width="1.0"
              d="M 619.192017,-165.510956 C 645.020325,-171.815720 693.219971,-142.530380 699.524719,-116.702057"
              class="id_12 id_1" stroke-opacity="1.0" stroke="#86c0a6"/>
        <path fill="none" stroke-width="1.0"
              d="M 404.128571,-26.976789 C 445.262756,-104.001076 622.500427,-157.836243 699.524719,-116.702057"
              class="id_13 id_1" stroke-opacity="1.0" stroke="#86c0a6"/>
        <path fill="none" stroke-width="1.0"
              d="M 404.128571,-26.976789 C 420.716278,2.493852 401.391846,71.581352 371.921204,88.169044"
              class="id_13 id_4" stroke-opacity="1.0" stroke="#edf8fb"/>
        <path fill="none" stroke-width="1.0"
              d="M -19.983643,-132.094208 C 126.996475,-272.917480 558.701477,-263.682190 699.524719,-116.702057"
              class="id_14 id_1" stroke-opacity="1.0" stroke="#86c0a6"/>
        <path fill="none" stroke-width="1.0"
              d="M -19.983643,-132.094208 C 35.333881,-181.938004 193.075806,-173.727386 242.919601,-118.409866"
              class="id_14 id_2" stroke-opacity="1.0" stroke="#edf8fb"/>
        <path fill="none" stroke-width="1.0"
              d="M -19.983643,-132.094208 C 52.968575,-103.590370 119.641144,48.593681 91.137314,121.545891"
              class="id_14 id_3" stroke-opacity="1.0" stroke="#edf8fb"/>
        <path fill="none" stroke-width="1.0"
              d="M -19.983643,-132.094208 C 102.449982,-166.422531 337.592865,-34.264580 371.921204,88.169044"
              class="id_14 id_4" stroke-opacity="1.0" stroke="#edf8fb"/>
        <path fill="none" stroke-width="1.0"
              d="M 659.791321,80.667778 C 646.394531,57.230865 661.454712,1.980342 684.891663,-11.416432"
              class="id_17 id_6" stroke-opacity="1.0" stroke="#edf8fb"/>
        <path fill="none" stroke-width="1.0"
              d="M 659.791321,80.667778 C 647.824890,89.548393 616.554382,84.919716 607.673767,72.953316"
              class="id_17 id_7" stroke-opacity="1.0" stroke="#edf8fb"/>
        <path fill="none" stroke-width="1.0"
              d="M 458.362610,-138.613846 C 510.977386,-182.463913 655.674683,-169.316833 699.524719,-116.702057"
              class="id_18 id_1" stroke-opacity="1.0" stroke="#86c0a6"/>
        <path fill="none" stroke-width="1.0"
              d="M 458.362610,-138.613846 C 419.314819,-91.484436 290.049011,-79.362061 242.919601,-118.409866"
              class="id_18 id_2" stroke-opacity="1.0" stroke="#edf8fb"/>
        <path fill="none" stroke-width="1.0"
              d="M 249.447357,-188.555634 C 353.833557,-264.200409 623.879944,-221.088257 699.524719,-116.702057"
              class="id_20 id_1" stroke-opacity="1.0" stroke="#86c0a6"/>
        <path fill="none" stroke-width="1.0"
              d="M 249.447357,-188.555634 C 262.170959,-173.220917 258.254303,-131.133469 242.919601,-118.409866"
              class="id_20 id_2" stroke-opacity="1.0" stroke="#edf8fb"/>
        <path fill="none" stroke-width="1.0"
              d="M 67.923828,15.582334 C 167.787125,-137.194717 546.747681,-216.565353 699.524719,-116.702057"
              class="id_22 id_1" stroke-opacity="1.0" stroke="#86c0a6"/>
        <path fill="none" stroke-width="1.0"
              d="M 67.923828,15.582334 C 76.124550,-46.215263 181.121994,-126.610580 242.919601,-118.409866"
              class="id_22 id_2" stroke-opacity="1.0" stroke="#edf8fb"/>
        <path fill="none" stroke-width="1.0"
              d="M 21.485462,-357.716522 C -4.049918,-304.869873 -121.622971,-263.902954 -174.469635,-289.438324"
              class="id_26 id_24" stroke-opacity="1.0" stroke="#edf8fb"/>
        <path fill="none" stroke-width="1.0"
              d="M 21.485462,-357.716522 C 50.924290,-382.456024 132.191772,-375.407074 156.931290,-345.968231"
              class="id_26 id_25" stroke-opacity="1.0" stroke="#edf8fb"/>
        <path fill="none" stroke-width="1.0"
              d="M 112.824036,-206.260406 C 174.047958,-136.361801 161.035919,60.321972 91.137314,121.545891"
              class="id_28 id_3" stroke-opacity="1.0" stroke="#edf8fb"/>
        <path fill="none" stroke-width="1.0"
              d="M 112.824036,-206.260406 C 38.729713,-165.437256 -133.646484,-215.343994 -174.469635,-289.438324"
              class="id_28 id_24" stroke-opacity="1.0" stroke="#edf8fb"/>
        <path fill="none" stroke-width="1.0"
              d="M 112.824036,-206.260406 C 93.703918,-243.023422 120.168266,-326.848114 156.931290,-345.968231"
              class="id_28 id_25" stroke-opacity="1.0" stroke="#edf8fb"/>
        <path fill="none" stroke-width="1.0"
              d="M -269.103729,-354.633636 C -101.819618,-331.445923 114.325020,-45.738220 91.137314,121.545891"
              class="id_29 id_3" stroke-opacity="1.0" stroke="#edf8fb"/>
        <path fill="none" stroke-width="1.0"
              d="M -317.833557,-119.767654 C -323.094910,-182.374573 -237.076569,-284.176971 -174.469635,-289.438324"
              class="id_30 id_24" stroke-opacity="1.0" stroke="#edf8fb"/>
        <path fill="none" stroke-width="1.0"
              d="M -317.833557,-119.767654 C -346.079712,-91.449326 -430.926453,-91.341080 -459.244751,-119.587234"
              class="id_30 id_27" stroke-opacity="1.0" stroke="#edf8fb"/>
        <path fill="none" stroke-width="1.0"
              d="M -148.835388,-46.197632 C -84.926826,-138.991089 150.126160,-182.318420 242.919601,-118.409866"
              class="id_31 id_2" stroke-opacity="1.0" stroke="#edf8fb"/>
        <path fill="none" stroke-width="1.0"
              d="M -148.835388,-46.197632 C -110.382828,-54.979721 -39.530842,-10.474002 -30.748755,27.978563"
              class="id_31 id_9" stroke-opacity="1.0" stroke="#edf8fb"/>
        <path fill="none" stroke-width="1.0"
              d="M 53.869556,-273.435181 C 214.347198,-371.219604 601.740295,-277.179688 699.524719,-116.702057"
              class="id_32 id_1" stroke-opacity="1.0" stroke="#86c0a6"/>
        <path fill="none" stroke-width="1.0"
              d="M 53.869556,-273.435181 C 59.975292,-308.554138 121.812332,-352.073944 156.931290,-345.968231"
              class="id_32 id_25" stroke-opacity="1.0" stroke="#edf8fb"/>
        <path fill="none" stroke-width="1.0"
              d="M 53.869556,-273.435181 C 30.536470,-283.814636 11.106012,-334.383453 21.485462,-357.716522"
              class="id_32 id_26" stroke-opacity="1.0" stroke="#edf8fb"/>
        <path fill="none" stroke-width="1.0"
              d="M 53.869556,-273.435181 C -26.964802,-225.080200 -220.748749,-273.799286 -269.103729,-354.633636"
              class="id_32 id_29" stroke-opacity="1.0" stroke="#edf8fb"/>
        <path fill="none" stroke-width="1.0"
              d="M -339.623962,66.987976 C -242.560120,-8.252701 15.896637,24.482048 91.137314,121.545891"
              class="id_33 id_3" stroke-opacity="1.0" stroke="#d5eeeb"/>
        <path fill="none" stroke-width="1.0"
              d="M -339.623962,66.987976 C -285.650787,-2.588951 -100.325676,-25.994598 -30.748755,27.978563"
              class="id_33 id_9" stroke-opacity="1.0" stroke="#d5eeeb"/>
        <path fill="none" stroke-width="1.0"
              d="M -339.623962,66.987976 C -406.170563,43.098717 -470.156525,-92.555054 -446.267273,-159.101639"
              class="id_33 id_15" stroke-opacity="1.0" stroke="#d5eeeb"/>
        <path fill="none" stroke-width="1.0"
              d="M -339.623962,66.987976 C -378.260712,4.212726 -342.052917,-147.905258 -279.277679,-186.541992"
              class="id_33 id_16" stroke-opacity="1.0" stroke="#d5eeeb"/>
        <path fill="none" stroke-width="1.0"
              d="M -339.623962,66.987976 C -409.385071,26.450504 -453.220520,-138.997375 -412.683044,-208.758484"
              class="id_33 id_19" stroke-opacity="1.0" stroke="#d5eeeb"/>
        <path fill="none" stroke-width="1.0"
              d="M -339.623962,66.987976 C -400.807312,71.336548 -499.105164,-13.915615 -503.453735,-75.098961"
              class="id_33 id_21" stroke-opacity="1.0" stroke="#d5eeeb"/>
        <path fill="none" stroke-width="1.0"
              d="M -339.623962,66.987976 C -282.177704,-76.096802 18.618839,-204.554565 161.703613,-147.108307"
              class="id_33 id_23" stroke-opacity="1.0" stroke="#d5eeeb"/>
        <path fill="none" stroke-width="1.0"
              d="M -339.623962,66.987976 C -377.878357,-37.328152 -278.785767,-251.183929 -174.469635,-289.438324"
              class="id_33 id_24" stroke-opacity="1.0" stroke="#d5eeeb"/>
        <path fill="none" stroke-width="1.0"
              d="M -339.623962,66.987976 C -372.617004,25.278767 -359.542786,-86.774605 -317.833557,-119.767654"
              class="id_33 id_30" stroke-opacity="1.0" stroke="#d5eeeb"/>
        <path fill="none" stroke-width="1.0"
              d="M -339.623962,66.987976 C -324.103363,6.193138 -209.630219,-61.718224 -148.835388,-46.197632"
              class="id_33 id_31" stroke-opacity="1.0" stroke="#d5eeeb"/>
        <path fill="none" stroke-width="1.0"
              d="M -339.623962,66.987976 C -329.009888,-79.795364 -92.913788,-284.049255 53.869556,-273.435181"
              class="id_33 id_32" stroke-opacity="1.0" stroke="#d5eeeb"/>
        <path fill="none" stroke-width="1.0"
              d="M -572.373901,-295.428162 C -399.367554,-339.071838 -74.392426,-145.027802 -30.748755,27.978563"
              class="id_34 id_9" stroke-opacity="1.0" stroke="#76b293"/>
        <path fill="none" stroke-width="1.0"
              d="M -572.373901,-295.428162 C -354.738922,-376.874908 93.883690,-172.592590 175.330444,45.042385"
              class="id_34 id_10" stroke-opacity="1.0" stroke="#76b293"/>
        <path fill="none" stroke-width="1.0"
              d="M -572.373901,-295.428162 C -429.229065,-373.239441 -97.794907,-275.239044 -19.983643,-132.094208"
              class="id_34 id_14" stroke-opacity="1.0" stroke="#76b293"/>
        <path fill="none" stroke-width="1.0"
              d="M -572.373901,-295.428162 C -519.887268,-293.384155 -444.223267,-211.588272 -446.267273,-159.101639"
              class="id_34 id_15" stroke-opacity="1.0" stroke="#76b293"/>
        <path fill="none" stroke-width="1.0"
              d="M -572.373901,-295.428162 C -491.977417,-332.270172 -316.119690,-266.938477 -279.277679,-186.541992"
              class="id_34 id_16" stroke-opacity="1.0" stroke="#76b293"/>
        <path fill="none" stroke-width="1.0"
              d="M -572.373901,-295.428162 C -523.101807,-310.032410 -427.287292,-258.030579 -412.683044,-208.758484"
              class="id_34 id_19" stroke-opacity="1.0" stroke="#76b293"/>
        <path fill="none" stroke-width="1.0"
              d="M -572.373901,-295.428162 C -386.635132,-438.417908 106.457603,-374.294403 249.447357,-188.555634"
              class="id_34 id_20" stroke-opacity="1.0" stroke="#76b293"/>
        <path fill="none" stroke-width="1.0"
              d="M -572.373901,-295.428162 C -514.523987,-265.146362 -473.171967,-132.948822 -503.453735,-75.098961"
              class="id_34 id_21" stroke-opacity="1.0" stroke="#76b293"/>
        <path fill="none" stroke-width="1.0"
              d="M -572.373901,-295.428162 C -395.894440,-412.579712 44.552078,-323.587769 161.703613,-147.108307"
              class="id_34 id_23" stroke-opacity="1.0" stroke="#76b293"/>
        <path fill="none" stroke-width="1.0"
              d="M -572.373901,-295.428162 C -491.595062,-373.811035 -252.852524,-370.217163 -174.469635,-289.438324"
              class="id_34 id_24" stroke-opacity="1.0" stroke="#76b293"/>
        <path fill="none" stroke-width="1.0"
              d="M -572.373901,-295.428162 C -514.579834,-282.885803 -446.702393,-177.381241 -459.244751,-119.587234"
              class="id_34 id_27" stroke-opacity="1.0" stroke="#76b293"/>
        <path fill="none" stroke-width="1.0"
              d="M -572.373901,-295.428162 C -417.500732,-414.634216 -6.382008,-361.133545 112.824036,-206.260406"
              class="id_34 id_28" stroke-opacity="1.0" stroke="#76b293"/>
        <path fill="none" stroke-width="1.0"
              d="M -572.373901,-295.428162 C -523.560974,-367.923279 -341.598846,-403.446564 -269.103729,-354.633636"
              class="id_34 id_29" stroke-opacity="1.0" stroke="#76b293"/>
        <path fill="none" stroke-width="1.0"
              d="M -572.373901,-295.428162 C -486.333710,-311.204132 -333.609528,-205.807816 -317.833557,-119.767654"
              class="id_34 id_30" stroke-opacity="1.0" stroke="#76b293"/>
        <path fill="none" stroke-width="1.0"
              d="M -572.373901,-295.428162 C -437.820099,-330.289764 -183.696991,-180.751450 -148.835388,-46.197632"
              class="id_34 id_31" stroke-opacity="1.0" stroke="#76b293"/>
        <path fill="none" stroke-width="1.0"
              d="M -572.373901,-295.428162 C -442.726624,-416.278259 -66.980537,-403.082458 53.869556,-273.435181"
              class="id_34 id_32" stroke-opacity="1.0" stroke="#76b293"/>
        <path fill="none" stroke-width="1.0"
              d="M -572.373901,-295.428162 C -453.340698,-269.494934 -313.690735,-52.045246 -339.623962,66.987976"
              class="id_34 id_33" stroke-opacity="1.0" stroke="#5fa984"/>
    </g>
    <g id="nodes">
        <circle fill-opacity="1.0" fill="#208852" r="28.75" cx="699.5247"
                class="id_1" cy="-116.70206" stroke="#000000"
                stroke-opacity="1.0" stroke-width="1.0"/>
        <circle fill-opacity="1.0" fill="#edf8fb" r="20.0" cx="242.9196"
                class="id_2" cy="-118.40987" stroke="#000000"
                stroke-opacity="1.0" stroke-width="1.0"/>
        <circle fill-opacity="1.0" fill="#edf8fb" r="21.25" cx="91.137314"
                class="id_3" cy="121.54589" stroke="#000000"
                stroke-opacity="1.0" stroke-width="1.0"/>
        <circle fill-opacity="1.0" fill="#edf8fb" r="16.25" cx="371.9212"
                class="id_4" cy="88.169044" stroke="#000000"
                stroke-opacity="1.0" stroke-width="1.0"/>
        <circle fill-opacity="1.0" fill="#edf8fb" r="12.5" cx="504.019"
                class="id_5" cy="41.15143" stroke="#000000" stroke-opacity="1.0"
                stroke-width="1.0"/>
        <circle fill-opacity="1.0" fill="#edf8fb" r="13.75" cx="684.89166"
                class="id_6" cy="-11.416432" stroke="#000000"
                stroke-opacity="1.0" stroke-width="1.0"/>
        <circle fill-opacity="1.0" fill="#edf8fb" r="13.75" cx="607.67377"
                class="id_7" cy="72.953316" stroke="#000000"
                stroke-opacity="1.0" stroke-width="1.0"/>
        <circle fill-opacity="1.0" fill="#edf8fb" r="13.75" cx="370.457"
                class="id_8" cy="-98.35558" stroke="#000000"
                stroke-opacity="1.0" stroke-width="1.0"/>
        <circle fill-opacity="1.0" fill="#edf8fb" r="15.0" cx="-30.748755"
                class="id_9" cy="27.978563" stroke="#000000"
                stroke-opacity="1.0" stroke-width="1.0"/>
        <circle fill-opacity="1.0" fill="#edf8fb" r="11.25" cx="175.33044"
                class="id_10" cy="45.042385" stroke="#000000"
                stroke-opacity="1.0" stroke-width="1.0"/>
        <circle fill-opacity="1.0" fill="#edf8fb" r="12.5" cx="586.1922"
                class="id_11" cy="19.81886" stroke="#000000"
                stroke-opacity="1.0" stroke-width="1.0"/>
        <circle fill-opacity="1.0" fill="#edf8fb" r="10.0" cx="619.192"
                class="id_12" cy="-165.51096" stroke="#000000"
                stroke-opacity="1.0" stroke-width="1.0"/>
        <circle fill-opacity="1.0" fill="#edf8fb" r="11.25" cx="404.12857"
                class="id_13" cy="-26.97679" stroke="#000000"
                stroke-opacity="1.0" stroke-width="1.0"/>
        <circle fill-opacity="1.0" fill="#edf8fb" r="15.0" cx="-19.983643"
                class="id_14" cy="-132.09421" stroke="#000000"
                stroke-opacity="1.0" stroke-width="1.0"/>
        <circle fill-opacity="1.0" fill="#edf8fb" r="11.25" cx="-446.26727"
                class="id_15" cy="-159.10164" stroke="#000000"
                stroke-opacity="1.0" stroke-width="1.0"/>
        <circle fill-opacity="1.0" fill="#edf8fb" r="11.25" cx="-279.27768"
                class="id_16" cy="-186.54199" stroke="#000000"
                stroke-opacity="1.0" stroke-width="1.0"/>
        <circle fill-opacity="1.0" fill="#edf8fb" r="11.25" cx="659.7913"
                class="id_17" cy="80.66778" stroke="#000000"
                stroke-opacity="1.0" stroke-width="1.0"/>
        <circle fill-opacity="1.0" fill="#edf8fb" r="11.25" cx="458.3626"
                class="id_18" cy="-138.61385" stroke="#000000"
                stroke-opacity="1.0" stroke-width="1.0"/>
        <circle fill-opacity="1.0" fill="#edf8fb" r="11.25" cx="-412.68304"
                class="id_19" cy="-208.75848" stroke="#000000"
                stroke-opacity="1.0" stroke-width="1.0"/>
        <circle fill-opacity="1.0" fill="#edf8fb" r="12.5" cx="249.44736"
                class="id_20" cy="-188.55563" stroke="#000000"
                stroke-opacity="1.0" stroke-width="1.0"/>
        <circle fill-opacity="1.0" fill="#edf8fb" r="11.25" cx="-503.45374"
                class="id_21" cy="-75.09896" stroke="#000000"
                stroke-opacity="1.0" stroke-width="1.0"/>
        <circle fill-opacity="1.0" fill="#edf8fb" r="11.25" cx="67.92383"
                class="id_22" cy="15.582334" stroke="#000000"
                stroke-opacity="1.0" stroke-width="1.0"/>
        <circle fill-opacity="1.0" fill="#edf8fb" r="11.25" cx="161.70361"
                class="id_23" cy="-147.1083" stroke="#000000"
                stroke-opacity="1.0" stroke-width="1.0"/>
        <circle fill-opacity="1.0" fill="#edf8fb" r="15.0" cx="-174.46964"
                class="id_24" cy="-289.43832" stroke="#000000"
                stroke-opacity="1.0" stroke-width="1.0"/>
        <circle fill-opacity="1.0" fill="#edf8fb" r="12.5" cx="156.93129"
                class="id_25" cy="-345.96823" stroke="#000000"
                stroke-opacity="1.0" stroke-width="1.0"/>
        <circle fill-opacity="1.0" fill="#edf8fb" r="12.5" cx="21.485462"
                class="id_26" cy="-357.71652" stroke="#000000"
                stroke-opacity="1.0" stroke-width="1.0"/>
        <circle fill-opacity="1.0" fill="#edf8fb" r="11.25" cx="-459.24475"
                class="id_27" cy="-119.587234" stroke="#000000"
                stroke-opacity="1.0" stroke-width="1.0"/>
        <circle fill-opacity="1.0" fill="#edf8fb" r="13.75" cx="112.824036"
                class="id_28" cy="-206.2604" stroke="#000000"
                stroke-opacity="1.0" stroke-width="1.0"/>
        <circle fill-opacity="1.0" fill="#edf8fb" r="12.5" cx="-269.10373"
                class="id_29" cy="-354.63364" stroke="#000000"
                stroke-opacity="1.0" stroke-width="1.0"/>
        <circle fill-opacity="1.0" fill="#edf8fb" r="13.75" cx="-317.83356"
                class="id_30" cy="-119.767654" stroke="#000000"
                stroke-opacity="1.0" stroke-width="1.0"/>
        <circle fill-opacity="1.0" fill="#edf8fb" r="13.75" cx="-148.83539"
                class="id_31" cy="-46.19763" stroke="#000000"
                stroke-opacity="1.0" stroke-width="1.0"/>
        <circle fill-opacity="1.0" fill="#edf8fb" r="16.25" cx="53.869556"
                class="id_32" cy="-273.43518" stroke="#000000"
                stroke-opacity="1.0" stroke-width="1.0"/>
        <circle fill-opacity="1.0" fill="#bee5dc" r="23.75" cx="-339.62396"
                class="id_33" cy="66.987976" stroke="#000000"
                stroke-opacity="1.0" stroke-width="1.0"/>
        <circle fill-opacity="1.0" fill="#006d2c" r="30.0" cx="-572.3739"
                class="id_34" cy="-295.42816" stroke="#000000"
                stroke-opacity="1.0" stroke-width="1.0"/>
    </g>
</svg>