<?xml version="1.0" encoding="utf-8" standalone="no"?>
<!DOCTYPE svg PUBLIC "-//W3C//DTD SVG 1.1//EN"
  "http://www.w3.org/Graphics/SVG/1.1/DTD/svg11.dtd">
<!-- Created with matplotlib (https://matplotlib.org/) -->
<svg height="288pt" version="1.1" viewBox="0 0 432 288" width="432pt" xmlns="http://www.w3.org/2000/svg" xmlns:xlink="http://www.w3.org/1999/xlink">
 <metadata>
  <rdf:RDF xmlns:cc="http://creativecommons.org/ns#" xmlns:dc="http://purl.org/dc/elements/1.1/" xmlns:rdf="http://www.w3.org/1999/02/22-rdf-syntax-ns#">
   <cc:Work>
    <dc:type rdf:resource="http://purl.org/dc/dcmitype/StillImage"/>
    <dc:date>2021-05-07T18:50:38.469975</dc:date>
    <dc:format>image/svg+xml</dc:format>
    <dc:creator>
     <cc:Agent>
      <dc:title>Matplotlib v3.3.2, https://matplotlib.org/</dc:title>
     </cc:Agent>
    </dc:creator>
   </cc:Work>
  </rdf:RDF>
 </metadata>
 <defs>
  <style type="text/css">*{stroke-linecap:butt;stroke-linejoin:round;}</style>
 </defs>
 <g id="figure_1">
  <g id="patch_1">
   <path d="M 0 288 
L 432 288 
L 432 0 
L 0 0 
z
" style="fill:#ffffff;"/>
  </g>
  <g id="axes_1">
   <g id="LineCollection_1">
    <path clip-path="url(#p8108730591)" d="M 147.193567 166.315616 
L 127.392458 137.964397 
" style="fill:none;stroke:#000000;"/>
    <path clip-path="url(#p8108730591)" d="M 147.193567 166.315616 
L 199.803912 114.635467 
" style="fill:none;stroke:#000000;"/>
    <path clip-path="url(#p8108730591)" d="M 147.193567 166.315616 
L 102.984892 144.322377 
" style="fill:none;stroke:#000000;"/>
    <path clip-path="url(#p8108730591)" d="M 147.193567 166.315616 
L 166.752454 214.323495 
" style="fill:none;stroke:#000000;"/>
    <path clip-path="url(#p8108730591)" d="M 147.193567 166.315616 
L 149.930692 236.195205 
" style="fill:none;stroke:#000000;"/>
    <path clip-path="url(#p8108730591)" d="M 147.193567 166.315616 
L 192.733425 232.376169 
" style="fill:none;stroke:#000000;"/>
    <path clip-path="url(#p8108730591)" d="M 147.193567 166.315616 
L 179.962549 153.190869 
" style="fill:none;stroke:#000000;"/>
    <path clip-path="url(#p8108730591)" d="M 147.193567 166.315616 
L 196.654578 99.092087 
" style="fill:none;stroke:#000000;"/>
    <path clip-path="url(#p8108730591)" d="M 147.193567 166.315616 
L 110.844454 220.607654 
" style="fill:none;stroke:#000000;"/>
    <path clip-path="url(#p8108730591)" d="M 147.193567 166.315616 
L 28.247343 204.515248 
" style="fill:none;stroke:#000000;"/>
    <path clip-path="url(#p8108730591)" d="M 147.193567 166.315616 
L 19.636364 158.061095 
" style="fill:none;stroke:#000000;"/>
    <path clip-path="url(#p8108730591)" d="M 147.193567 166.315616 
L 164.602579 121.945536 
" style="fill:none;stroke:#000000;"/>
    <path clip-path="url(#p8108730591)" d="M 147.193567 166.315616 
L 52.364383 169.051146 
" style="fill:none;stroke:#000000;"/>
    <path clip-path="url(#p8108730591)" d="M 147.193567 166.315616 
L 131.019987 110.107844 
" style="fill:none;stroke:#000000;"/>
    <path clip-path="url(#p8108730591)" d="M 147.193567 166.315616 
L 91.290844 182.382069 
" style="fill:none;stroke:#000000;"/>
    <path clip-path="url(#p8108730591)" d="M 147.193567 166.315616 
L 290.5997 104.266755 
" style="fill:none;stroke:#000000;"/>
    <path clip-path="url(#p8108730591)" d="M 127.392458 137.964397 
L 199.803912 114.635467 
" style="fill:none;stroke:#000000;"/>
    <path clip-path="url(#p8108730591)" d="M 127.392458 137.964397 
L 102.984892 144.322377 
" style="fill:none;stroke:#000000;"/>
    <path clip-path="url(#p8108730591)" d="M 127.392458 137.964397 
L 179.962549 153.190869 
" style="fill:none;stroke:#000000;"/>
    <path clip-path="url(#p8108730591)" d="M 127.392458 137.964397 
L 164.602579 121.945536 
" style="fill:none;stroke:#000000;"/>
    <path clip-path="url(#p8108730591)" d="M 127.392458 137.964397 
L 52.364383 169.051146 
" style="fill:none;stroke:#000000;"/>
    <path clip-path="url(#p8108730591)" d="M 127.392458 137.964397 
L 131.019987 110.107844 
" style="fill:none;stroke:#000000;"/>
    <path clip-path="url(#p8108730591)" d="M 127.392458 137.964397 
L 91.290844 182.382069 
" style="fill:none;stroke:#000000;"/>
    <path clip-path="url(#p8108730591)" d="M 127.392458 137.964397 
L 164.784079 83.822025 
" style="fill:none;stroke:#000000;"/>
    <path clip-path="url(#p8108730591)" d="M 199.803912 114.635467 
L 102.984892 144.322377 
" style="fill:none;stroke:#000000;"/>
    <path clip-path="url(#p8108730591)" d="M 199.803912 114.635467 
L 179.962549 153.190869 
" style="fill:none;stroke:#000000;"/>
    <path clip-path="url(#p8108730591)" d="M 199.803912 114.635467 
L 196.654578 99.092087 
" style="fill:none;stroke:#000000;"/>
    <path clip-path="url(#p8108730591)" d="M 199.803912 114.635467 
L 138.436904 68.070205 
" style="fill:none;stroke:#000000;"/>
    <path clip-path="url(#p8108730591)" d="M 199.803912 114.635467 
L 164.602579 121.945536 
" style="fill:none;stroke:#000000;"/>
    <path clip-path="url(#p8108730591)" d="M 199.803912 114.635467 
L 322.754606 88.830568 
" style="fill:none;stroke:#000000;"/>
    <path clip-path="url(#p8108730591)" d="M 199.803912 114.635467 
L 280.154968 113.750783 
" style="fill:none;stroke:#000000;"/>
    <path clip-path="url(#p8108730591)" d="M 199.803912 114.635467 
L 238.358663 53.9828 
" style="fill:none;stroke:#000000;"/>
    <path clip-path="url(#p8108730591)" d="M 102.984892 144.322377 
L 179.962549 153.190869 
" style="fill:none;stroke:#000000;"/>
    <path clip-path="url(#p8108730591)" d="M 102.984892 144.322377 
L 19.636364 158.061095 
" style="fill:none;stroke:#000000;"/>
    <path clip-path="url(#p8108730591)" d="M 102.984892 144.322377 
L 164.602579 121.945536 
" style="fill:none;stroke:#000000;"/>
    <path clip-path="url(#p8108730591)" d="M 166.752454 214.323495 
L 192.733425 232.376169 
" style="fill:none;stroke:#000000;"/>
    <path clip-path="url(#p8108730591)" d="M 166.752454 214.323495 
L 110.844454 220.607654 
" style="fill:none;stroke:#000000;"/>
    <path clip-path="url(#p8108730591)" d="M 149.930692 236.195205 
L 192.733425 232.376169 
" style="fill:none;stroke:#000000;"/>
    <path clip-path="url(#p8108730591)" d="M 149.930692 236.195205 
L 110.844454 220.607654 
" style="fill:none;stroke:#000000;"/>
    <path clip-path="url(#p8108730591)" d="M 149.930692 236.195205 
L 183.637487 274.909091 
" style="fill:none;stroke:#000000;"/>
    <path clip-path="url(#p8108730591)" d="M 192.733425 232.376169 
L 183.637487 274.909091 
" style="fill:none;stroke:#000000;"/>
    <path clip-path="url(#p8108730591)" d="M 196.654578 99.092087 
L 164.784079 83.822025 
" style="fill:none;stroke:#000000;"/>
    <path clip-path="url(#p8108730591)" d="M 196.654578 99.092087 
L 238.358663 53.9828 
" style="fill:none;stroke:#000000;"/>
    <path clip-path="url(#p8108730591)" d="M 196.654578 99.092087 
L 238.272323 63.442988 
" style="fill:none;stroke:#000000;"/>
    <path clip-path="url(#p8108730591)" d="M 138.436904 68.070205 
L 238.272323 63.442988 
" style="fill:none;stroke:#000000;"/>
    <path clip-path="url(#p8108730591)" d="M 164.602579 121.945536 
L 238.272323 63.442988 
" style="fill:none;stroke:#000000;"/>
    <path clip-path="url(#p8108730591)" d="M 216.834363 14.543973 
L 238.358663 53.9828 
" style="fill:none;stroke:#000000;"/>
    <path clip-path="url(#p8108730591)" d="M 216.834363 14.543973 
L 238.272323 63.442988 
" style="fill:none;stroke:#000000;"/>
    <path clip-path="url(#p8108730591)" d="M 155.608493 31.968961 
L 238.358663 53.9828 
" style="fill:none;stroke:#000000;"/>
    <path clip-path="url(#p8108730591)" d="M 155.608493 31.968961 
L 238.272323 63.442988 
" style="fill:none;stroke:#000000;"/>
    <path clip-path="url(#p8108730591)" d="M 284.903986 22.307352 
L 238.358663 53.9828 
" style="fill:none;stroke:#000000;"/>
    <path clip-path="url(#p8108730591)" d="M 284.903986 22.307352 
L 238.272323 63.442988 
" style="fill:none;stroke:#000000;"/>
    <path clip-path="url(#p8108730591)" d="M 131.019987 110.107844 
L 238.272323 63.442988 
" style="fill:none;stroke:#000000;"/>
    <path clip-path="url(#p8108730591)" d="M 181.899532 19.541071 
L 238.358663 53.9828 
" style="fill:none;stroke:#000000;"/>
    <path clip-path="url(#p8108730591)" d="M 181.899532 19.541071 
L 238.272323 63.442988 
" style="fill:none;stroke:#000000;"/>
    <path clip-path="url(#p8108730591)" d="M 253.349946 13.090909 
L 238.358663 53.9828 
" style="fill:none;stroke:#000000;"/>
    <path clip-path="url(#p8108730591)" d="M 253.349946 13.090909 
L 238.272323 63.442988 
" style="fill:none;stroke:#000000;"/>
    <path clip-path="url(#p8108730591)" d="M 341.624242 60.260271 
L 412.363636 84.889998 
" style="fill:none;stroke:#000000;"/>
    <path clip-path="url(#p8108730591)" d="M 341.624242 60.260271 
L 322.754606 88.830568 
" style="fill:none;stroke:#000000;"/>
    <path clip-path="url(#p8108730591)" d="M 341.624242 60.260271 
L 323.280462 37.369242 
" style="fill:none;stroke:#000000;"/>
    <path clip-path="url(#p8108730591)" d="M 341.624242 60.260271 
L 238.358663 53.9828 
" style="fill:none;stroke:#000000;"/>
    <path clip-path="url(#p8108730591)" d="M 341.624242 60.260271 
L 238.272323 63.442988 
" style="fill:none;stroke:#000000;"/>
    <path clip-path="url(#p8108730591)" d="M 404.864412 106.848917 
L 412.363636 84.889998 
" style="fill:none;stroke:#000000;"/>
    <path clip-path="url(#p8108730591)" d="M 404.864412 106.848917 
L 322.754606 88.830568 
" style="fill:none;stroke:#000000;"/>
    <path clip-path="url(#p8108730591)" d="M 404.864412 106.848917 
L 290.5997 104.266755 
" style="fill:none;stroke:#000000;"/>
    <path clip-path="url(#p8108730591)" d="M 412.363636 84.889998 
L 290.5997 104.266755 
" style="fill:none;stroke:#000000;"/>
    <path clip-path="url(#p8108730591)" d="M 345.066929 16.504449 
L 323.280462 37.369242 
" style="fill:none;stroke:#000000;"/>
    <path clip-path="url(#p8108730591)" d="M 345.066929 16.504449 
L 238.272323 63.442988 
" style="fill:none;stroke:#000000;"/>
    <path clip-path="url(#p8108730591)" d="M 322.754606 88.830568 
L 238.272323 63.442988 
" style="fill:none;stroke:#000000;"/>
    <path clip-path="url(#p8108730591)" d="M 280.154968 113.750783 
L 290.5997 104.266755 
" style="fill:none;stroke:#000000;"/>
    <path clip-path="url(#p8108730591)" d="M 280.154968 113.750783 
L 238.272323 63.442988 
" style="fill:none;stroke:#000000;"/>
    <path clip-path="url(#p8108730591)" d="M 323.280462 37.369242 
L 238.358663 53.9828 
" style="fill:none;stroke:#000000;"/>
    <path clip-path="url(#p8108730591)" d="M 323.280462 37.369242 
L 238.272323 63.442988 
" style="fill:none;stroke:#000000;"/>
    <path clip-path="url(#p8108730591)" d="M 164.784079 83.822025 
L 238.358663 53.9828 
" style="fill:none;stroke:#000000;"/>
    <path clip-path="url(#p8108730591)" d="M 164.784079 83.822025 
L 238.272323 63.442988 
" style="fill:none;stroke:#000000;"/>
    <path clip-path="url(#p8108730591)" d="M 290.5997 104.266755 
L 238.358663 53.9828 
" style="fill:none;stroke:#000000;"/>
    <path clip-path="url(#p8108730591)" d="M 290.5997 104.266755 
L 238.272323 63.442988 
" style="fill:none;stroke:#000000;"/>
    <path clip-path="url(#p8108730591)" d="M 238.358663 53.9828 
L 238.272323 63.442988 
" style="fill:none;stroke:#000000;"/>
   </g>
   <g id="PathCollection_1">
    <defs>
     <path d="M 0 8.660254 
C 2.296726 8.660254 4.499694 7.747755 6.123724 6.123724 
C 7.747755 4.499694 8.660254 2.296726 8.660254 0 
C 8.660254 -2.296726 7.747755 -4.499694 6.123724 -6.123724 
C 4.499694 -7.747755 2.296726 -8.660254 0 -8.660254 
C -2.296726 -8.660254 -4.499694 -7.747755 -6.123724 -6.123724 
C -7.747755 -4.499694 -8.660254 -2.296726 -8.660254 0 
C -8.660254 2.296726 -7.747755 4.499694 -6.123724 6.123724 
C -4.499694 7.747755 -2.296726 8.660254 0 8.660254 
z
" id="mdd0f1f6958" style="stroke:#1f78b4;"/>
    </defs>
    <g clip-path="url(#p8108730591)">
     <use style="fill:#1f78b4;stroke:#1f78b4;" x="147.193567" xlink:href="#mdd0f1f6958" y="166.315616"/>
     <use style="fill:#1f78b4;stroke:#1f78b4;" x="127.392458" xlink:href="#mdd0f1f6958" y="137.964397"/>
     <use style="fill:#1f78b4;stroke:#1f78b4;" x="199.803912" xlink:href="#mdd0f1f6958" y="114.635467"/>
     <use style="fill:#1f78b4;stroke:#1f78b4;" x="102.984892" xlink:href="#mdd0f1f6958" y="144.322377"/>
     <use style="fill:#1f78b4;stroke:#1f78b4;" x="166.752454" xlink:href="#mdd0f1f6958" y="214.323495"/>
     <use style="fill:#1f78b4;stroke:#1f78b4;" x="149.930692" xlink:href="#mdd0f1f6958" y="236.195205"/>
     <use style="fill:#1f78b4;stroke:#1f78b4;" x="192.733425" xlink:href="#mdd0f1f6958" y="232.376169"/>
     <use style="fill:#1f78b4;stroke:#1f78b4;" x="179.962549" xlink:href="#mdd0f1f6958" y="153.190869"/>
     <use style="fill:#1f78b4;stroke:#1f78b4;" x="196.654578" xlink:href="#mdd0f1f6958" y="99.092087"/>
     <use style="fill:#1f78b4;stroke:#1f78b4;" x="138.436904" xlink:href="#mdd0f1f6958" y="68.070205"/>
     <use style="fill:#1f78b4;stroke:#1f78b4;" x="110.844454" xlink:href="#mdd0f1f6958" y="220.607654"/>
     <use style="fill:#1f78b4;stroke:#1f78b4;" x="28.247343" xlink:href="#mdd0f1f6958" y="204.515248"/>
     <use style="fill:#1f78b4;stroke:#1f78b4;" x="19.636364" xlink:href="#mdd0f1f6958" y="158.061095"/>
     <use style="fill:#1f78b4;stroke:#1f78b4;" x="164.602579" xlink:href="#mdd0f1f6958" y="121.945536"/>
     <use style="fill:#1f78b4;stroke:#1f78b4;" x="216.834363" xlink:href="#mdd0f1f6958" y="14.543973"/>
     <use style="fill:#1f78b4;stroke:#1f78b4;" x="155.608493" xlink:href="#mdd0f1f6958" y="31.968961"/>
     <use style="fill:#1f78b4;stroke:#1f78b4;" x="183.637487" xlink:href="#mdd0f1f6958" y="274.909091"/>
     <use style="fill:#1f78b4;stroke:#1f78b4;" x="52.364383" xlink:href="#mdd0f1f6958" y="169.051146"/>
     <use style="fill:#1f78b4;stroke:#1f78b4;" x="284.903986" xlink:href="#mdd0f1f6958" y="22.307352"/>
     <use style="fill:#1f78b4;stroke:#1f78b4;" x="131.019987" xlink:href="#mdd0f1f6958" y="110.107844"/>
     <use style="fill:#1f78b4;stroke:#1f78b4;" x="181.899532" xlink:href="#mdd0f1f6958" y="19.541071"/>
     <use style="fill:#1f78b4;stroke:#1f78b4;" x="91.290844" xlink:href="#mdd0f1f6958" y="182.382069"/>
     <use style="fill:#1f78b4;stroke:#1f78b4;" x="253.349946" xlink:href="#mdd0f1f6958" y="13.090909"/>
     <use style="fill:#1f78b4;stroke:#1f78b4;" x="341.624242" xlink:href="#mdd0f1f6958" y="60.260271"/>
     <use style="fill:#1f78b4;stroke:#1f78b4;" x="404.864412" xlink:href="#mdd0f1f6958" y="106.848917"/>
     <use style="fill:#1f78b4;stroke:#1f78b4;" x="412.363636" xlink:href="#mdd0f1f6958" y="84.889998"/>
     <use style="fill:#1f78b4;stroke:#1f78b4;" x="345.066929" xlink:href="#mdd0f1f6958" y="16.504449"/>
     <use style="fill:#1f78b4;stroke:#1f78b4;" x="322.754606" xlink:href="#mdd0f1f6958" y="88.830568"/>
     <use style="fill:#1f78b4;stroke:#1f78b4;" x="280.154968" xlink:href="#mdd0f1f6958" y="113.750783"/>
     <use style="fill:#1f78b4;stroke:#1f78b4;" x="323.280462" xlink:href="#mdd0f1f6958" y="37.369242"/>
     <use style="fill:#1f78b4;stroke:#1f78b4;" x="164.784079" xlink:href="#mdd0f1f6958" y="83.822025"/>
     <use style="fill:#1f78b4;stroke:#1f78b4;" x="290.5997" xlink:href="#mdd0f1f6958" y="104.266755"/>
     <use style="fill:#1f78b4;stroke:#1f78b4;" x="238.358663" xlink:href="#mdd0f1f6958" y="53.9828"/>
     <use style="fill:#1f78b4;stroke:#1f78b4;" x="238.272323" xlink:href="#mdd0f1f6958" y="63.442988"/>
    </g>
   </g>
   <g id="text_1">
    <g clip-path="url(#p8108730591)">
     <!-- 1 -->
     <g transform="translate(143.376067 169.626866)scale(0.12 -0.12)">
      <defs>
       <path d="M 12.40625 8.296875 
L 28.515625 8.296875 
L 28.515625 63.921875 
L 10.984375 60.40625 
L 10.984375 69.390625 
L 28.421875 72.90625 
L 38.28125 72.90625 
L 38.28125 8.296875 
L 54.390625 8.296875 
L 54.390625 0 
L 12.40625 0 
z
" id="DejaVuSans-49"/>
      </defs>
      <use xlink:href="#DejaVuSans-49"/>
     </g>
    </g>
   </g>
   <g id="text_2">
    <g clip-path="url(#p8108730591)">
     <!-- 2 -->
     <g transform="translate(123.574958 141.275647)scale(0.12 -0.12)">
      <defs>
       <path d="M 19.1875 8.296875 
L 53.609375 8.296875 
L 53.609375 0 
L 7.328125 0 
L 7.328125 8.296875 
Q 12.9375 14.109375 22.625 23.890625 
Q 32.328125 33.6875 34.8125 36.53125 
Q 39.546875 41.84375 41.421875 45.53125 
Q 43.3125 49.21875 43.3125 52.78125 
Q 43.3125 58.59375 39.234375 62.25 
Q 35.15625 65.921875 28.609375 65.921875 
Q 23.96875 65.921875 18.8125 64.3125 
Q 13.671875 62.703125 7.8125 59.421875 
L 7.8125 69.390625 
Q 13.765625 71.78125 18.9375 73 
Q 24.125 74.21875 28.421875 74.21875 
Q 39.75 74.21875 46.484375 68.546875 
Q 53.21875 62.890625 53.21875 53.421875 
Q 53.21875 48.921875 51.53125 44.890625 
Q 49.859375 40.875 45.40625 35.40625 
Q 44.1875 33.984375 37.640625 27.21875 
Q 31.109375 20.453125 19.1875 8.296875 
z
" id="DejaVuSans-50"/>
      </defs>
      <use xlink:href="#DejaVuSans-50"/>
     </g>
    </g>
   </g>
   <g id="text_3">
    <g clip-path="url(#p8108730591)">
     <!-- 3 -->
     <g transform="translate(195.986412 117.946717)scale(0.12 -0.12)">
      <defs>
       <path d="M 40.578125 39.3125 
Q 47.65625 37.796875 51.625 33 
Q 55.609375 28.21875 55.609375 21.1875 
Q 55.609375 10.40625 48.1875 4.484375 
Q 40.765625 -1.421875 27.09375 -1.421875 
Q 22.515625 -1.421875 17.65625 -0.515625 
Q 12.796875 0.390625 7.625 2.203125 
L 7.625 11.71875 
Q 11.71875 9.328125 16.59375 8.109375 
Q 21.484375 6.890625 26.8125 6.890625 
Q 36.078125 6.890625 40.9375 10.546875 
Q 45.796875 14.203125 45.796875 21.1875 
Q 45.796875 27.640625 41.28125 31.265625 
Q 36.765625 34.90625 28.71875 34.90625 
L 20.21875 34.90625 
L 20.21875 43.015625 
L 29.109375 43.015625 
Q 36.375 43.015625 40.234375 45.921875 
Q 44.09375 48.828125 44.09375 54.296875 
Q 44.09375 59.90625 40.109375 62.90625 
Q 36.140625 65.921875 28.71875 65.921875 
Q 24.65625 65.921875 20.015625 65.03125 
Q 15.375 64.15625 9.8125 62.3125 
L 9.8125 71.09375 
Q 15.4375 72.65625 20.34375 73.4375 
Q 25.25 74.21875 29.59375 74.21875 
Q 40.828125 74.21875 47.359375 69.109375 
Q 53.90625 64.015625 53.90625 55.328125 
Q 53.90625 49.265625 50.4375 45.09375 
Q 46.96875 40.921875 40.578125 39.3125 
z
" id="DejaVuSans-51"/>
      </defs>
      <use xlink:href="#DejaVuSans-51"/>
     </g>
    </g>
   </g>
   <g id="text_4">
    <g clip-path="url(#p8108730591)">
     <!-- 4 -->
     <g transform="translate(99.167392 147.633627)scale(0.12 -0.12)">
      <defs>
       <path d="M 37.796875 64.3125 
L 12.890625 25.390625 
L 37.796875 25.390625 
z
M 35.203125 72.90625 
L 47.609375 72.90625 
L 47.609375 25.390625 
L 58.015625 25.390625 
L 58.015625 17.1875 
L 47.609375 17.1875 
L 47.609375 0 
L 37.796875 0 
L 37.796875 17.1875 
L 4.890625 17.1875 
L 4.890625 26.703125 
z
" id="DejaVuSans-52"/>
      </defs>
      <use xlink:href="#DejaVuSans-52"/>
     </g>
    </g>
   </g>
   <g id="text_5">
    <g clip-path="url(#p8108730591)">
     <!-- 5 -->
     <g transform="translate(162.934954 217.634745)scale(0.12 -0.12)">
      <defs>
       <path d="M 10.796875 72.90625 
L 49.515625 72.90625 
L 49.515625 64.59375 
L 19.828125 64.59375 
L 19.828125 46.734375 
Q 21.96875 47.46875 24.109375 47.828125 
Q 26.265625 48.1875 28.421875 48.1875 
Q 40.625 48.1875 47.75 41.5 
Q 54.890625 34.8125 54.890625 23.390625 
Q 54.890625 11.625 47.5625 5.09375 
Q 40.234375 -1.421875 26.90625 -1.421875 
Q 22.3125 -1.421875 17.546875 -0.640625 
Q 12.796875 0.140625 7.71875 1.703125 
L 7.71875 11.625 
Q 12.109375 9.234375 16.796875 8.0625 
Q 21.484375 6.890625 26.703125 6.890625 
Q 35.15625 6.890625 40.078125 11.328125 
Q 45.015625 15.765625 45.015625 23.390625 
Q 45.015625 31 40.078125 35.4375 
Q 35.15625 39.890625 26.703125 39.890625 
Q 22.75 39.890625 18.8125 39.015625 
Q 14.890625 38.140625 10.796875 36.28125 
z
" id="DejaVuSans-53"/>
      </defs>
      <use xlink:href="#DejaVuSans-53"/>
     </g>
    </g>
   </g>
   <g id="text_6">
    <g clip-path="url(#p8108730591)">
     <!-- 6 -->
     <g transform="translate(146.113192 239.506455)scale(0.12 -0.12)">
      <defs>
       <path d="M 33.015625 40.375 
Q 26.375 40.375 22.484375 35.828125 
Q 18.609375 31.296875 18.609375 23.390625 
Q 18.609375 15.53125 22.484375 10.953125 
Q 26.375 6.390625 33.015625 6.390625 
Q 39.65625 6.390625 43.53125 10.953125 
Q 47.40625 15.53125 47.40625 23.390625 
Q 47.40625 31.296875 43.53125 35.828125 
Q 39.65625 40.375 33.015625 40.375 
z
M 52.59375 71.296875 
L 52.59375 62.3125 
Q 48.875 64.0625 45.09375 64.984375 
Q 41.3125 65.921875 37.59375 65.921875 
Q 27.828125 65.921875 22.671875 59.328125 
Q 17.53125 52.734375 16.796875 39.40625 
Q 19.671875 43.65625 24.015625 45.921875 
Q 28.375 48.1875 33.59375 48.1875 
Q 44.578125 48.1875 50.953125 41.515625 
Q 57.328125 34.859375 57.328125 23.390625 
Q 57.328125 12.15625 50.6875 5.359375 
Q 44.046875 -1.421875 33.015625 -1.421875 
Q 20.359375 -1.421875 13.671875 8.265625 
Q 6.984375 17.96875 6.984375 36.375 
Q 6.984375 53.65625 15.1875 63.9375 
Q 23.390625 74.21875 37.203125 74.21875 
Q 40.921875 74.21875 44.703125 73.484375 
Q 48.484375 72.75 52.59375 71.296875 
z
" id="DejaVuSans-54"/>
      </defs>
      <use xlink:href="#DejaVuSans-54"/>
     </g>
    </g>
   </g>
   <g id="text_7">
    <g clip-path="url(#p8108730591)">
     <!-- 7 -->
     <g transform="translate(188.915925 235.687419)scale(0.12 -0.12)">
      <defs>
       <path d="M 8.203125 72.90625 
L 55.078125 72.90625 
L 55.078125 68.703125 
L 28.609375 0 
L 18.3125 0 
L 43.21875 64.59375 
L 8.203125 64.59375 
z
" id="DejaVuSans-55"/>
      </defs>
      <use xlink:href="#DejaVuSans-55"/>
     </g>
    </g>
   </g>
   <g id="text_8">
    <g clip-path="url(#p8108730591)">
     <!-- 8 -->
     <g transform="translate(176.145049 156.502119)scale(0.12 -0.12)">
      <defs>
       <path d="M 31.78125 34.625 
Q 24.75 34.625 20.71875 30.859375 
Q 16.703125 27.09375 16.703125 20.515625 
Q 16.703125 13.921875 20.71875 10.15625 
Q 24.75 6.390625 31.78125 6.390625 
Q 38.8125 6.390625 42.859375 10.171875 
Q 46.921875 13.96875 46.921875 20.515625 
Q 46.921875 27.09375 42.890625 30.859375 
Q 38.875 34.625 31.78125 34.625 
z
M 21.921875 38.8125 
Q 15.578125 40.375 12.03125 44.71875 
Q 8.5 49.078125 8.5 55.328125 
Q 8.5 64.0625 14.71875 69.140625 
Q 20.953125 74.21875 31.78125 74.21875 
Q 42.671875 74.21875 48.875 69.140625 
Q 55.078125 64.0625 55.078125 55.328125 
Q 55.078125 49.078125 51.53125 44.71875 
Q 48 40.375 41.703125 38.8125 
Q 48.828125 37.15625 52.796875 32.3125 
Q 56.78125 27.484375 56.78125 20.515625 
Q 56.78125 9.90625 50.3125 4.234375 
Q 43.84375 -1.421875 31.78125 -1.421875 
Q 19.734375 -1.421875 13.25 4.234375 
Q 6.78125 9.90625 6.78125 20.515625 
Q 6.78125 27.484375 10.78125 32.3125 
Q 14.796875 37.15625 21.921875 38.8125 
z
M 18.3125 54.390625 
Q 18.3125 48.734375 21.84375 45.5625 
Q 25.390625 42.390625 31.78125 42.390625 
Q 38.140625 42.390625 41.71875 45.5625 
Q 45.3125 48.734375 45.3125 54.390625 
Q 45.3125 60.0625 41.71875 63.234375 
Q 38.140625 66.40625 31.78125 66.40625 
Q 25.390625 66.40625 21.84375 63.234375 
Q 18.3125 60.0625 18.3125 54.390625 
z
" id="DejaVuSans-56"/>
      </defs>
      <use xlink:href="#DejaVuSans-56"/>
     </g>
    </g>
   </g>
   <g id="text_9">
    <g clip-path="url(#p8108730591)">
     <!-- 9 -->
     <g transform="translate(192.837078 102.403337)scale(0.12 -0.12)">
      <defs>
       <path d="M 10.984375 1.515625 
L 10.984375 10.5 
Q 14.703125 8.734375 18.5 7.8125 
Q 22.3125 6.890625 25.984375 6.890625 
Q 35.75 6.890625 40.890625 13.453125 
Q 46.046875 20.015625 46.78125 33.40625 
Q 43.953125 29.203125 39.59375 26.953125 
Q 35.25 24.703125 29.984375 24.703125 
Q 19.046875 24.703125 12.671875 31.3125 
Q 6.296875 37.9375 6.296875 49.421875 
Q 6.296875 60.640625 12.9375 67.421875 
Q 19.578125 74.21875 30.609375 74.21875 
Q 43.265625 74.21875 49.921875 64.515625 
Q 56.59375 54.828125 56.59375 36.375 
Q 56.59375 19.140625 48.40625 8.859375 
Q 40.234375 -1.421875 26.421875 -1.421875 
Q 22.703125 -1.421875 18.890625 -0.6875 
Q 15.09375 0.046875 10.984375 1.515625 
z
M 30.609375 32.421875 
Q 37.25 32.421875 41.125 36.953125 
Q 45.015625 41.5 45.015625 49.421875 
Q 45.015625 57.28125 41.125 61.84375 
Q 37.25 66.40625 30.609375 66.40625 
Q 23.96875 66.40625 20.09375 61.84375 
Q 16.21875 57.28125 16.21875 49.421875 
Q 16.21875 41.5 20.09375 36.953125 
Q 23.96875 32.421875 30.609375 32.421875 
z
" id="DejaVuSans-57"/>
      </defs>
      <use xlink:href="#DejaVuSans-57"/>
     </g>
    </g>
   </g>
   <g id="text_10">
    <g clip-path="url(#p8108730591)">
     <!-- 10 -->
     <g transform="translate(130.801904 71.381455)scale(0.12 -0.12)">
      <defs>
       <path d="M 31.78125 66.40625 
Q 24.171875 66.40625 20.328125 58.90625 
Q 16.5 51.421875 16.5 36.375 
Q 16.5 21.390625 20.328125 13.890625 
Q 24.171875 6.390625 31.78125 6.390625 
Q 39.453125 6.390625 43.28125 13.890625 
Q 47.125 21.390625 47.125 36.375 
Q 47.125 51.421875 43.28125 58.90625 
Q 39.453125 66.40625 31.78125 66.40625 
z
M 31.78125 74.21875 
Q 44.046875 74.21875 50.515625 64.515625 
Q 56.984375 54.828125 56.984375 36.375 
Q 56.984375 17.96875 50.515625 8.265625 
Q 44.046875 -1.421875 31.78125 -1.421875 
Q 19.53125 -1.421875 13.0625 8.265625 
Q 6.59375 17.96875 6.59375 36.375 
Q 6.59375 54.828125 13.0625 64.515625 
Q 19.53125 74.21875 31.78125 74.21875 
z
" id="DejaVuSans-48"/>
      </defs>
      <use xlink:href="#DejaVuSans-49"/>
      <use x="63.623047" xlink:href="#DejaVuSans-48"/>
     </g>
    </g>
   </g>
   <g id="text_11">
    <g clip-path="url(#p8108730591)">
     <!-- 11 -->
     <g transform="translate(103.209454 223.918904)scale(0.12 -0.12)">
      <use xlink:href="#DejaVuSans-49"/>
      <use x="63.623047" xlink:href="#DejaVuSans-49"/>
     </g>
    </g>
   </g>
   <g id="text_12">
    <g clip-path="url(#p8108730591)">
     <!-- 12 -->
     <g transform="translate(20.612343 207.826498)scale(0.12 -0.12)">
      <use xlink:href="#DejaVuSans-49"/>
      <use x="63.623047" xlink:href="#DejaVuSans-50"/>
     </g>
    </g>
   </g>
   <g id="text_13">
    <g clip-path="url(#p8108730591)">
     <!-- 13 -->
     <g transform="translate(12.001364 161.372345)scale(0.12 -0.12)">
      <use xlink:href="#DejaVuSans-49"/>
      <use x="63.623047" xlink:href="#DejaVuSans-51"/>
     </g>
    </g>
   </g>
   <g id="text_14">
    <g clip-path="url(#p8108730591)">
     <!-- 14 -->
     <g transform="translate(156.967579 125.256786)scale(0.12 -0.12)">
      <use xlink:href="#DejaVuSans-49"/>
      <use x="63.623047" xlink:href="#DejaVuSans-52"/>
     </g>
    </g>
   </g>
   <g id="text_15">
    <g clip-path="url(#p8108730591)">
     <!-- 15 -->
     <g transform="translate(209.199363 17.855223)scale(0.12 -0.12)">
      <use xlink:href="#DejaVuSans-49"/>
      <use x="63.623047" xlink:href="#DejaVuSans-53"/>
     </g>
    </g>
   </g>
   <g id="text_16">
    <g clip-path="url(#p8108730591)">
     <!-- 16 -->
     <g transform="translate(147.973493 35.280211)scale(0.12 -0.12)">
      <use xlink:href="#DejaVuSans-49"/>
      <use x="63.623047" xlink:href="#DejaVuSans-54"/>
     </g>
    </g>
   </g>
   <g id="text_17">
    <g clip-path="url(#p8108730591)">
     <!-- 17 -->
     <g transform="translate(176.002487 278.220341)scale(0.12 -0.12)">
      <use xlink:href="#DejaVuSans-49"/>
      <use x="63.623047" xlink:href="#DejaVuSans-55"/>
     </g>
    </g>
   </g>
   <g id="text_18">
    <g clip-path="url(#p8108730591)">
     <!-- 18 -->
     <g transform="translate(44.729383 172.362396)scale(0.12 -0.12)">
      <use xlink:href="#DejaVuSans-49"/>
      <use x="63.623047" xlink:href="#DejaVuSans-56"/>
     </g>
    </g>
   </g>
   <g id="text_19">
    <g clip-path="url(#p8108730591)">
     <!-- 19 -->
     <g transform="translate(277.268986 25.618602)scale(0.12 -0.12)">
      <use xlink:href="#DejaVuSans-49"/>
      <use x="63.623047" xlink:href="#DejaVuSans-57"/>
     </g>
    </g>
   </g>
   <g id="text_20">
    <g clip-path="url(#p8108730591)">
     <!-- 20 -->
     <g transform="translate(123.384987 113.419094)scale(0.12 -0.12)">
      <use xlink:href="#DejaVuSans-50"/>
      <use x="63.623047" xlink:href="#DejaVuSans-48"/>
     </g>
    </g>
   </g>
   <g id="text_21">
    <g clip-path="url(#p8108730591)">
     <!-- 21 -->
     <g transform="translate(174.264532 22.852321)scale(0.12 -0.12)">
      <use xlink:href="#DejaVuSans-50"/>
      <use x="63.623047" xlink:href="#DejaVuSans-49"/>
     </g>
    </g>
   </g>
   <g id="text_22">
    <g clip-path="url(#p8108730591)">
     <!-- 22 -->
     <g transform="translate(83.655844 185.693319)scale(0.12 -0.12)">
      <use xlink:href="#DejaVuSans-50"/>
      <use x="63.623047" xlink:href="#DejaVuSans-50"/>
     </g>
    </g>
   </g>
   <g id="text_23">
    <g clip-path="url(#p8108730591)">
     <!-- 23 -->
     <g transform="translate(245.714946 16.402159)scale(0.12 -0.12)">
      <use xlink:href="#DejaVuSans-50"/>
      <use x="63.623047" xlink:href="#DejaVuSans-51"/>
     </g>
    </g>
   </g>
   <g id="text_24">
    <g clip-path="url(#p8108730591)">
     <!-- 24 -->
     <g transform="translate(333.989242 63.571521)scale(0.12 -0.12)">
      <use xlink:href="#DejaVuSans-50"/>
      <use x="63.623047" xlink:href="#DejaVuSans-52"/>
     </g>
    </g>
   </g>
   <g id="text_25">
    <g clip-path="url(#p8108730591)">
     <!-- 25 -->
     <g transform="translate(397.229412 110.160167)scale(0.12 -0.12)">
      <use xlink:href="#DejaVuSans-50"/>
      <use x="63.623047" xlink:href="#DejaVuSans-53"/>
     </g>
    </g>
   </g>
   <g id="text_26">
    <g clip-path="url(#p8108730591)">
     <!-- 26 -->
     <g transform="translate(404.728636 88.201248)scale(0.12 -0.12)">
      <use xlink:href="#DejaVuSans-50"/>
      <use x="63.623047" xlink:href="#DejaVuSans-54"/>
     </g>
    </g>
   </g>
   <g id="text_27">
    <g clip-path="url(#p8108730591)">
     <!-- 27 -->
     <g transform="translate(337.431929 19.815699)scale(0.12 -0.12)">
      <use xlink:href="#DejaVuSans-50"/>
      <use x="63.623047" xlink:href="#DejaVuSans-55"/>
     </g>
    </g>
   </g>
   <g id="text_28">
    <g clip-path="url(#p8108730591)">
     <!-- 28 -->
     <g transform="translate(315.119606 92.141818)scale(0.12 -0.12)">
      <use xlink:href="#DejaVuSans-50"/>
      <use x="63.623047" xlink:href="#DejaVuSans-56"/>
     </g>
    </g>
   </g>
   <g id="text_29">
    <g clip-path="url(#p8108730591)">
     <!-- 29 -->
     <g transform="translate(272.519968 117.062033)scale(0.12 -0.12)">
      <use xlink:href="#DejaVuSans-50"/>
      <use x="63.623047" xlink:href="#DejaVuSans-57"/>
     </g>
    </g>
   </g>
   <g id="text_30">
    <g clip-path="url(#p8108730591)">
     <!-- 30 -->
     <g transform="translate(315.645462 40.680492)scale(0.12 -0.12)">
      <use xlink:href="#DejaVuSans-51"/>
      <use x="63.623047" xlink:href="#DejaVuSans-48"/>
     </g>
    </g>
   </g>
   <g id="text_31">
    <g clip-path="url(#p8108730591)">
     <!-- 31 -->
     <g transform="translate(157.149079 87.133275)scale(0.12 -0.12)">
      <use xlink:href="#DejaVuSans-51"/>
      <use x="63.623047" xlink:href="#DejaVuSans-49"/>
     </g>
    </g>
   </g>
   <g id="text_32">
    <g clip-path="url(#p8108730591)">
     <!-- 32 -->
     <g transform="translate(282.9647 107.578005)scale(0.12 -0.12)">
      <use xlink:href="#DejaVuSans-51"/>
      <use x="63.623047" xlink:href="#DejaVuSans-50"/>
     </g>
    </g>
   </g>
   <g id="text_33">
    <g clip-path="url(#p8108730591)">
     <!-- 33 -->
     <g transform="translate(230.723663 57.29405)scale(0.12 -0.12)">
      <use xlink:href="#DejaVuSans-51"/>
      <use x="63.623047" xlink:href="#DejaVuSans-51"/>
     </g>
    </g>
   </g>
   <g id="text_34">
    <g clip-path="url(#p8108730591)">
     <!-- 34 -->
     <g transform="translate(230.637323 66.754238)scale(0.12 -0.12)">
      <use xlink:href="#DejaVuSans-51"/>
      <use x="63.623047" xlink:href="#DejaVuSans-52"/>
     </g>
    </g>
   </g>
  </g>
 </g>
 <defs>
  <clipPath id="p8108730591">
   <rect height="288" width="432" x="0" y="0"/>
  </clipPath>
 </defs>
</svg>
